{
    "app-id": "org.tabos.twofun",
    "runtime": "org.gnome.Platform",
    "runtime-version": "master",
    "sdk": "org.gnome.Sdk",
    "command": "twofun",
    "finish-args": [
        "--share=ipc",
        "--socket=fallback-x11",
        "--socket=wayland",
        "--device=dri"
    ],
    "modules": [
        {
            "name": "blueprint-compiler",
            "buildsystem": "meson",
            "cleanup": [
                "*"
            ],
            "sources": [
              {
                "type": "git",
                "url": "https://gitlab.gnome.org/jwestman/blueprint-compiler",
                "branch" : "main"
              }
            ]
        },
        {
            "name": "twofun",
            "buildsystem": "meson",
            "config-opts": [ "--libdir=lib" ],
            "builddir": true,
            "sources": [
                {
                    "type": "git",
                    "url": "https://gitlab.com/tabos/twofun.git"
                }
            ]
        }
    ]
}
